…
``` r
breakthrough <- find_tracer_breakthrough(tracer_data = tracer, time_interval = c(30000, 40000), do_plot = T)
```

<img src="man/figures/README-unnamed-chunk-4-1.png" width="90%" />

``` r
breakthrough
#> $breakthrough_time
#> [1] 37169
#> 
#> $tracer_data
#> # A tibble: 213 x 6
#>     time     value smoothed_tracer tracer_first_der… curvature curvature_first_…
#>    <dbl>     <dbl>           <dbl>             <dbl>     <dbl>             <dbl>
#>  1  1560  0.00205        0.00201        -0.000000920  5.13e-11          3.74e-14
#>  2  1920  0.00171        0.00168        -0.000000902  6.51e-11          3.46e-14
#>  3  2280  0.00138        0.00136        -0.000000875  7.58e-11          2.11e-14
#>  4  2640  0.00106        0.00105        -0.000000845  8.17e-11          6.11e-15
#>  5  3000  0.000745       0.000753       -0.000000816  8.08e-11         -1.11e-15
#>  6  3360  0.000449       0.000464       -0.000000789  7.83e-11         -2.57e-15
#>  7  3720  0.000167       0.000186       -0.000000760  7.93e-11         -3.24e-16
#>  8  4080 -0.000101      -0.0000825      -0.000000730  8.07e-11          9.50e-16
#>  9  4440 -0.000359      -0.000340       -0.000000702  7.97e-11         -3.44e-15
#> 10  4800 -0.000608      -0.000588       -0.000000674  7.72e-11         -7.70e-15
#> # … with 203 more rows
```
…
